pipeline test cases/pipeline5/mips.vcd
$date
    May 15, 2023  12:23:08
$end
$version
    TOOL:	ncsim(64)	15.20-s051
$end
$timescale
    1 ns
$end

$scope module pipe5_tb2 $end
$var reg       1 !    clk1  $end
$var reg       1 "    clk2  $end
$var integer  32 #    k  $end

$scope module mips $end
$var wire      1 $    clk1  $end
$var wire      1 %    clk2  $end
$var reg      32 &    PC [31:0] $end
$var reg      32 '    IF_ID_IR [31:0] $end
$var reg      32 (    IF_ID_NPC [31:0] $end
$var reg      32 )    ID_EX_IR [31:0] $end
$var reg      32 *    ID_EX_NPC [31:0] $end
$var reg      32 +    ID_EX_A [31:0] $end
$var reg      32 ,    ID_EX_B [31:0] $end
$var reg      32 -    ID_EX_Imm [31:0] $end
$var reg       3 .    ID_EX_type [2:0] $end
$var reg       3 /    EX_MEM_type [2:0] $end
$var reg       3 0    MEM_WB_type [2:0] $end
$var reg      32 1    EX_MEM_IR [31:0] $end
$var reg      32 2    EX_MEM_ALUOut [31:0] $end
$var reg      32 3    EX_MEM_B [31:0] $end
$var reg       1 4    EX_MEM_cond  $end
$var reg      32 5    MEM_WB_IR [31:0] $end
$var reg      32 6    MEM_WB_ALUOut [31:0] $end
$var reg      32 7    MEM_WB_LMD [31:0] $end
$var parameter  6 8    ADD  $end
$var parameter  6 9    SUB  $end
$var parameter  6 :    AND  $end
$var parameter  6 ;    OR  $end
$var parameter  6 <    SLT  $end
$var parameter  6 =    MUL  $end
$var parameter  6 >    HLT  $end
$var parameter  6 ?    LW  $end
$var parameter  6 @    SW  $end
$var parameter  6 A    ADDI  $end
$var parameter  6 B    SUBI  $end
$var parameter  6 C    SLTI  $end
$var parameter  6 D    BNEQZ  $end
$var parameter  6 E    BEQZ  $end
$var parameter  3 F    RR_ALU  $end
$var parameter  3 G    RM_ALU  $end
$var parameter  3 H    LOAD  $end
$var parameter  3 I    STORE  $end
$var parameter  3 J    BRANCH  $end
$var parameter  3 K    HALT  $end
$var reg       1 L    HALTED  $end
$var reg       1 M    TAKEN_BRANCH  $end
$upscope $end

$upscope $end

$enddefinitions $end
$dumpvars
b101 K
b100 J
b11 I
b10 H
b1 G
b0 F
b1110 E
b1101 D
b1100 C
b1011 B
b1010 A
b1001 @
b1000 ?
b111111 >
b101 =
b100 <
b11 ;
b10 :
b1 9
b0 8
0!
0"
b11111 #
0$
0%
b0 &
bx '
bx (
bx )
bx *
bx +
bx ,
bx -
bx .
bx /
bx 0
bx 1
bx 2
bx 3
x4
bx 5
bx 6
bx 7
0L
0M
$end
#5
1!
1$
b1 &
#7
b101000000010100000000011001000 '
b1 (
#10
0!
0$
#15
1"
1%
b0 +
b1010 ,
#17
b1 *
b101000000010100000000011001000 )
b11001000 -
b1 .
#20
0"
0%
#25
1!
1$
b10 &
#27
b1 /
b101000000010100000000011001000 1
b11001000 2
b101000000000100000000000000001 '
b10 (
#30
0!
0$
#35
1"
1%
b1 0
b10 ,
#37
b101000000010100000000011001000 5
b11001000 6
b10 *
b101000000000100000000000000001 )
b1 -
#40
0"
0%
#45
1!
1$
b11 &
#47
b101000000000100000000000000001 1
b1 2
b1110100101001010000000000000 '
b11 (
#50
0!
0$
#55
1"
1%
b10100 +
b10100 ,
#57
b101000000000100000000000000001 5
b1 6
b11 *
b1110100101001010000000000000 )
b11111111111111111010000000000000 -
b0 .
#60
0"
0%
#65
1!
1$
b100 &
#67
b0 /
b1110100101001010000000000000 1
b10100 2
b100001010000110000000000000000 '
b100 (
#70
0!
0$
#75
1"
1%
b0 0
b11001000 +
b11 ,
#77
b1110100101001010000000000000 5
b10100 6
b100 *
b100001010000110000000000000000 )
b0 -
b10 .
#80
0"
0%
#85
1!
1$
b101 &
#87
b10 /
b100001010000110000000000000000 1
b11001000 2
b11 3
b1110100101001010000000000000 '
b101 (
#90
0!
0$
#95
1"
1%
b10 0
b10100 +
b10100 ,
#97
b100001010000110000000000000000 5
b111 7
b101 *
b1110100101001010000000000000 )
b11111111111111111010000000000000 -
b0 .
#100
0"
0%
#105
1!
1$
b110 &
#107
b0 /
b1110100101001010000000000000 1
b10100 2
b10100010000110001000000000000 '
b110 (
#110
0!
0$
#115
1"
1%
b0 0
b1 +
b11 ,
#117
b1110100101001010000000000000 5
b110 *
b10100010000110001000000000000 )
b1000000000000 -
#120
0"
0%
#125
1!
1$
b111 &
#127
b10100010000110001000000000000 1
b11 2
b101100011000110000000000000001 '
b111 (
#130
0!
0$
#135
1"
1%
b11 +
#137
b10100010000110001000000000000 5
b11 6
b111 *
b101100011000110000000000000001 )
b1 -
b1 .
#140
0"
0%
#145
1!
1$
b1000 &
#147
b1 /
b101100011000110000000000000001 1
b10 2
b1110100101001010000000000000 '
b1000 (
#150
0!
0$
#155
1"
1%
b1 0
b10100 +
b10100 ,
#157
b101100011000110000000000000001 5
b10 6
b1000 *
b1110100101001010000000000000 )
b11111111111111111010000000000000 -
b0 .
#160
0"
0%
#165
1!
1$
b1001 &
#167
b0 /
b1110100101001010000000000000 1
b10100 2
b110100011000001111111111111100 '
b1001 (
#170
0!
0$
#175
1"
1%
b0 0
b10 +
b0 ,
#177
b1110100101001010000000000000 5
b10100 6
b1001 *
b110100011000001111111111111100 )
b11111111111111111111111111111100 -
b100 .
#180
0"
0%
#185
1!
1$
b1010 &
#187
b100 /
b110100011000001111111111111100 1
b101 2
04
b100101010000101111111111111110 '
b1010 (
#190
0!
0$
#195
1"
1%
b100 0
b11001000 +
b11 ,
#197
b110100011000001111111111111100 5
b1010 *
b100101010000101111111111111110 )
b11111111111111111111111111111110 -
b11 .
#200
0"
0%
#205
1!
1$
#207
b11 /
b100101010000101111111111111110 1
b11000110 2
b10100010000110001000000000000 '
1M
b110 (
b110 &
#210
0!
0$
#215
1"
1%
b11 0
b11 +
b10 ,
#217
b100101010000101111111111111110 5
b110 *
b10100010000110001000000000000 )
b1000000000000 -
b0 .
#220
0"
0%
#225
1!
1$
b111 &
#227
b0 /
b10100010000110001000000000000 1
0M
b110 2
b101100011000110000000000000001 '
b111 (
#230
0!
0$
#235
1"
1%
b0 0
b10 +
#237
b10100010000110001000000000000 5
b110 6
b111 *
b101100011000110000000000000001 )
b1 -
b1 .
#240
0"
0%
#245
1!
1$
b1000 &
#247
b1 /
b101100011000110000000000000001 1
b1 2
b1110100101001010000000000000 '
b1000 (
#250
0!
0$
#255
1"
1%
b1 0
b10100 +
b10100 ,
#257
b101100011000110000000000000001 5
b1 6
b1000 *
b1110100101001010000000000000 )
b11111111111111111010000000000000 -
b0 .
#260
0"
0%
#265
1!
1$
b1001 &
#267
b0 /
b1110100101001010000000000000 1
b10100 2
b110100011000001111111111111100 '
b1001 (
#270
0!
0$
#275
1"
1%
b0 0
b1 +
b0 ,
#277
b1110100101001010000000000000 5
b10100 6
b1001 *
b110100011000001111111111111100 )
b11111111111111111111111111111100 -
b100 .
#280
0"
0%
#285
1!
1$
b1010 &
#287
b100 /
b110100011000001111111111111100 1
b101 2
b100101010000101111111111111110 '
b1010 (
#290
0!
0$
#295
1"
1%
b100 0
b11001000 +
b110 ,
#297
b110100011000001111111111111100 5
b1010 *
b100101010000101111111111111110 )
b11111111111111111111111111111110 -
b11 .
#300
0"
0%
#305
1!
1$
#307
b11 /
b100101010000101111111111111110 1
b11000110 2
b110 3
b10100010000110001000000000000 '
1M
b110 (
b110 &
#310
0!
0$
#315
1"
1%
b11 0
b110 +
b1 ,
#317
b100101010000101111111111111110 5
b110 *
b10100010000110001000000000000 )
b1000000000000 -
b0 .
#320
0"
0%
#325
1!
1$
b111 &
#327
b0 /
b10100010000110001000000000000 1
0M
b110 2
b101100011000110000000000000001 '
b111 (
#330
0!
0$
#335
1"
1%
b0 0
b1 +
#337
b10100010000110001000000000000 5
b110 6
b111 *
b101100011000110000000000000001 )
b1 -
b1 .
#340
0"
0%
#345
1!
1$
b1000 &
#347
b1 /
b101100011000110000000000000001 1
b0 2
b1110100101001010000000000000 '
b1000 (
#350
0!
0$
#355
1"
1%
b1 0
b10100 +
b10100 ,
#357
b101100011000110000000000000001 5
b0 6
b1000 *
b1110100101001010000000000000 )
b11111111111111111010000000000000 -
b0 .
#360
0"
0%
#365
1!
1$
b1001 &
#367
b0 /
b1110100101001010000000000000 1
b10100 2
b110100011000001111111111111100 '
b1001 (
#370
0!
0$
#375
1"
1%
b0 0
b0 +
b0 ,
#377
b1110100101001010000000000000 5
b10100 6
b1001 *
b110100011000001111111111111100 )
b11111111111111111111111111111100 -
b100 .
#380
0"
0%
#385
1!
1$
b1010 &
#387
b100 /
b110100011000001111111111111100 1
b101 2
14
b100101010000101111111111111110 '
b1010 (
#390
0!
0$
#395
1"
1%
b100 0
b11001000 +
b110 ,
#397
b110100011000001111111111111100 5
b1010 *
b100101010000101111111111111110 )
b11111111111111111111111111111110 -
b11 .
#400
0"
0%
#405
1!
1$
b1011 &
#407
b11 /
b100101010000101111111111111110 1
b11000110 2
b11111100000000000000000000000000 '
b1011 (
#410
0!
0$
#415
1"
1%
b11 0
b0 +
b0 ,
#417
b100101010000101111111111111110 5
b1011 *
b11111100000000000000000000000000 )
b0 -
b101 .
#420
0"
0%
#425
1!
1$
b1100 &
#427
b101 /
b11111100000000000000000000000000 1
bx '
b1100 (
#430
0!
0$
#435
1"
1%
b101 0
bx +
bx ,
#437
b11111100000000000000000000000000 5
b1100 *
bx )
bx -
#440
0"
0%
#445
1!
1$
b1101 &
#447
1L
bx 1
b1101 (
